Pg. Web grupal
…
library(inti)
modelo1 <- remove_outliers(data = data
                         ,formula = leafdw ~ riego + geno + riego * geno+ (1 | bloque)
                         , plot_diag = T
                         )
modelo1
## $data
## $data$raw
## # A tibble: 150 × 5
##    index riego    geno  bloque leafdw
##    <chr> <chr>    <chr> <chr>   <dbl>
##  1 1     sequia   G01   II      13.3 
##  2 2     sequia   G02   IV       9.42
##  3 3     irrigado G01   III     18.2 
##  4 4     sequia   G02   I        8.84
##  5 5     irrigado G03   II      14.6 
##  6 6     irrigado G04   V       19.8 
##  7 7     irrigado G01   I       15.0 
##  8 8     irrigado G05   IV      19.9 
##  9 9     sequia   G06   II      19.9 
## 10 10    sequia   G05   I       12.3 
## # ℹ 140 more rows
## 
## $data$clean
##     index    riego geno bloque leafdw
## 1       1   sequia  G01     II  13.28
## 2       2   sequia  G02     IV   9.42
## 3       3 irrigado  G01    III  18.22
## 4       4   sequia  G02      I   8.84
## 5       5 irrigado  G03     II  14.55
…
modelo2 <- remove_outliers(data = data
                         ,formula = ttrans ~ riego + geno + riego * geno+ (1 | bloque)
                         , plot_diag = T
                         )
modelo2
## $data
## $data$raw
## # A tibble: 150 × 5
##    index riego    geno  bloque ttrans
##    <chr> <chr>    <chr> <chr>   <dbl>
##  1 1     sequia   G01   II       4.50
##  2 2     sequia   G02   IV       3.54
##  3 3     irrigado G01   III      8.39
##  4 4     sequia   G02   I        2.90
##  5 5     irrigado G03   II       7.37
##  6 6     irrigado G04   V       10.0 
##  7 7     irrigado G01   I        6.39
##  8 8     irrigado G05   IV       9.26
##  9 9     sequia   G06   II       4.36
## 10 10    sequia   G05   I        5.16
## # ℹ 140 more rows
## 
## $data$clean
##     index    riego geno bloque ttrans
## 1       1   sequia  G01     II  4.499
## 2       2   sequia  G02     IV  3.538
## 3       3 irrigado  G01    III  8.388
## 4       4   sequia  G02      I  2.904
## 5       5 irrigado  G03     II  7.370
…
